{"status":true,"msg":"done","items":[{"tmdb":{"type":"tv","id":"317895","season":1,"vote_average":9,"vote_count":1},"imdb":{"id":null},"modified":{"time":"2026-04-06T12:34:15.000Z"},"_id":"a7329df9cdd8a212eb351e34fed578c9","name":"Chi\u1ebfn K\u1ef3 Nh\u01b0 Tranh","slug":"chien-ky-nhu-tranh","origin_name":"Flags Of Glory (Banner Of Heroes)","poster_url":"https:\/\/phimimg.com\/upload\/vod\/20260406-1\/f96eead465af53ab4288a3350d79b5cd.jpg","thumb_url":"https:\/\/phimimg.com\/upload\/vod\/20260406-1\/c30bd612c1d250c80278a4c1987caf2e.jpg","year":2026},{"tmdb":{"type":"tv","id":"282902","season":1,"vote_average":9,"vote_count":1},"imdb":{"id":null},"modified":{"time":"2026-04-06T10:41:28.000Z"},"_id":"a5468f4a8a184cd13696974d780a32a2","name":"Kh\u00f3 L\u01b0\u1eddng","slug":"kho-luong","origin_name":"The Silent Rift","poster_url":"https:\/\/phimimg.com\/upload\/vod\/20260406-1\/ec2db1d300e5287711ef9fd4f29a025c.jpg","thumb_url":"https:\/\/phimimg.com\/upload\/vod\/20260406-1\/3f1f3b3c03dda70a68b768263fb1fa1d.jpg","year":2026},{"tmdb":{"type":"tv","id":"283961","season":1,"vote_average":0,"vote_count":0},"imdb":{"id":null},"modified":{"time":"2026-04-05T21:08:05.000Z"},"_id":"9fd4b00af024dc168d3d955414ceb8e9","name":"Em L\u00e0 Ni\u1ec1m Vui \u0110\u1ebfn Mu\u1ed9n","slug":"em-la-niem-vui-den-muon","origin_name":"You Are My Fateful Love","poster_url":"https:\/\/phimimg.com\/upload\/vod\/20260327-1\/b620853af2ef56a4fa2db9b684b372c1.jpg","thumb_url":"https:\/\/phimimg.com\/upload\/vod\/20260327-1\/2150c9e59a708e8a8a02df9d30d612d9.jpg","year":2026},{"tmdb":{"type":"tv","id":"281392","season":1,"vote_average":9,"vote_count":1},"imdb":{"id":null},"modified":{"time":"2026-04-05T17:48:11.000Z"},"_id":"0c945a8e12dd7ff713c275c1ad6de9e1","name":"R\u1eebng Th\u00e9p","slug":"rung-thep","origin_name":"Sunsets Secrets Regrets","poster_url":"https:\/\/phimimg.com\/upload\/vod\/20260404-1\/47285dd5514f9846167e47c352e3c6c3.jpg","thumb_url":"https:\/\/phimimg.com\/upload\/vod\/20260404-1\/02949ec5a3960d592e7c5b45ef159336.jpg","year":2026},{"tmdb":{"type":"tv","id":"258865","season":1,"vote_average":9,"vote_count":2},"imdb":{"id":null},"modified":{"time":"2026-04-05T17:47:26.000Z"},"_id":"109e3ceb0fb7112c1e9e4a3b45e68212","name":"M\u1ed9 T\u01b0 T\u1eeb (B\u1ea1ch Nh\u1eadt \u0110\u1ec1 \u0110\u0103ng)","slug":"mo-tu-tu-bach-nhat-de-dang","origin_name":"Love Beyond The Grave","poster_url":"https:\/\/phimimg.com\/upload\/vod\/20260329-1\/07efc63f356411a39d21aa4c2b0d9f43.jpg","thumb_url":"https:\/\/phimimg.com\/upload\/vod\/20260329-1\/d86f8a6861ade21ad623082454d939b0.jpg","year":2026},{"tmdb":{"type":"tv","id":"284828","season":1,"vote_average":9,"vote_count":1},"imdb":{"id":null},"modified":{"time":"2026-04-05T17:23:38.000Z"},"_id":"1fee5d8b6b5230e47fc933334d03ff5b","name":"T\u00ecnh Y\u00eau B\u1ecd X\u00edt","slug":"tinh-yeu-bo-xit","origin_name":"Duang With You","poster_url":"https:\/\/phimimg.com\/upload\/vod\/20260203-1\/4f012b3b1425ea6f159faeede915d199.jpg","thumb_url":"https:\/\/phimimg.com\/upload\/vod\/20260203-1\/610ef761198897ffbf87df213991bb66.jpg","year":2026},{"tmdb":{"type":"tv","id":"288659","season":1,"vote_average":7.5,"vote_count":2},"imdb":{"id":null},"modified":{"time":"2026-04-05T17:23:08.000Z"},"_id":"7bff87c59e3fbc5e1ded2fe3ce1d9865","name":"S\u1ee9 Gi\u1ea3 B\u1ed1n M\u00f9a: V\u0169 \u0110i\u1ec7u M\u00f9a Xu\u00e2n","slug":"su-gia-bon-mua-vu-dieu-mua-xuan","origin_name":"Agents Of The Four Seasons: Dance Of Spring","poster_url":"https:\/\/phimimg.com\/upload\/vod\/20260403-1\/a095ce2e1bf08a7fe7af81c0f26bfb53.jpg","thumb_url":"https:\/\/phimimg.com\/upload\/vod\/20260403-1\/f74b91913b26df1bc3c22176c7a57f18.jpg","year":2026},{"tmdb":{"type":"tv","id":"317216","season":1,"vote_average":0,"vote_count":0},"imdb":{"id":null},"modified":{"time":"2026-04-05T17:22:41.000Z"},"_id":"ca2de931da459a1e23803a3182e55686","name":"Sa \u0110o\u1ea1","slug":"sa-doa","origin_name":"In Love With Loving You","poster_url":"https:\/\/phimimg.com\/upload\/vod\/20260329-1\/10d72b1f7dba3142997f194b4c5dfc90.jpg","thumb_url":"https:\/\/phimimg.com\/upload\/vod\/20260329-1\/48d859ae7a5dba530bd5d63ea8232ba1.jpg","year":2026},{"tmdb":{"type":"tv","id":"282946","season":1,"vote_average":8.7,"vote_count":3},"imdb":{"id":null},"modified":{"time":"2026-04-05T17:21:14.000Z"},"_id":"e2f925f4bbb3c006b9add15fcf797a78","name":"Ph\u00e1p S\u01b0 Kunon C\u00f3 Th\u1ec3 Nh\u00ecn Th\u1ea5y (Majutsushi Kunon wa Mieteiru)","slug":"phap-su-kunon-co-the-nhin-thay-majutsushi-kunon-wa-mieteiru","origin_name":"Kunon The Sorcerer Can See","poster_url":"https:\/\/phimimg.com\/upload\/vod\/20260112-1\/d952ca11041fd1fa4838da93e8c2ef5f.jpg","thumb_url":"https:\/\/phimimg.com\/upload\/vod\/20260112-1\/9a5105f378ecaea87a5aa7336727bb38.jpg","year":2026},{"tmdb":{"type":"tv","id":"313930","season":1,"vote_average":0,"vote_count":0},"imdb":{"id":null},"modified":{"time":"2026-04-05T17:20:45.000Z"},"_id":"c1927a57de5c455d3bb1e6cdae59fab5","name":"N\u1eef \u0110i\u1ec7p Vi\u00ean Ng\u1ea7m","slug":"nu-diep-vien-ngam","origin_name":"Pretty Dangerous","poster_url":"https:\/\/phimimg.com\/upload\/vod\/20260324-1\/bf31b8e6cedf3c1af02da6db86c430ef.jpg","thumb_url":"https:\/\/phimimg.com\/upload\/vod\/20260324-1\/657ff08e59d1560a18cdccbf27a17c93.jpg","year":2026}],"pagination":{"totalItems":26870,"totalItemsPerPage":10,"currentPage":1,"totalPages":2687}}