{"status":"success","paginate":{"current_page":1,"total_page":1337,"total_items":13366,"items_per_page":10},"cat":{"name":"Phim b\u1ed9","title":"Phim b\u1ed9","slug":"phim-bo"},"items":[{"name":"Nguy\u1ec7t L\u00e2n \u1ef6 K\u1ef7","slug":"nguyet-lan-y-ky","original_name":"Veil of Shadows","thumb_url":"https:\/\/phim.nguonc.com\/public\/images\/Post\/6\/nguyet-lan-y-ky.jpg","poster_url":"https:\/\/phim.nguonc.com\/public\/images\/Post\/6\/nguyet-lan-y-ky-1.jpg","created":"2026-04-01T04:31:07.000000Z","modified":"2026-04-06T04:11:06.000000Z","description":"L\u1ed9 Vu Y l\u00e0 c\u1eedu v\u1ef9 h\u1ed3 nh\u1ecf nh\u1ea5t t\u1ed5 ch\u1ee9c th\u1ea7n b\u00ed V\u00f4 T\u01b0\u1edbng Nguy\u1ec7t, trong l\u00fac th\u1ef1c hi\u1ec7n nhi\u1ec7m v\u1ee5 c\u00f9ng t\u1ef7 t\u1ef7 V\u1ee5 V\u1ecdng Ng\u00f4n truy t\u00ecm h\u1ed3 y\u00eau Ti\u1ec3u Duy \u0111ang ch\u1ea1y tr\u1ed1n, c\u00f4 \u0111\u00e3 th\u00e2m nh\u1eadp v\u00e0o Vi Ph\u1ee7 \u1edf L\u1ea1c An. C\u00f9ng th\u00e2m nh\u1eadp v\u00e0o Vi Ph\u1ee7 khi \u0111\u00f3 c\u00f2n c\u00f3 V\u00f5 Th\u1eadp Quang mang trong m\u00ecnh m\u1ed1i th\u00f9 truy\u1ec1n ki\u1ebfp, v\u00e0 hai ph\u00e1p s\u01b0 Th\u1ecb L\u00e2n T\u00f4ng l\u00e0 K\u00fd Linh v\u00e0 L\u1ec7 Ki\u1ebfp. Trong qu\u00e1 tr\u00ecnh t\u00ecm ki\u1ebfm s\u1ef1 th\u1eadt, h\u1ecd v\u1eeba h\u1ee3p t\u00e1c, v\u1eeba th\u0103m d\u00f2 l\u1eabn nhau, nh\u01b0ng m\u1ed7i ng\u01b0\u1eddi l\u1ea1i c\u00f3 m\u1ee5c \u0111\u00edch s\u00e2u xa ri\u00eang. Sau nhi\u1ec1u l\u1ea7n \u0111\u1ed1i \u0111\u1ea7u \u0111\u1ec3 tranh \u0111o\u1ea1t s\u1ee9c m\u1ea1nh Long Th\u1ea7n, h\u1ecd li\u00ean t\u1ee5c thay \u0111\u1ed5i d\u00f2ng ch\u1ea3y v\u1eadn m\u1ec7nh. \u0110\u1ec3 b\u1ea3o v\u1ec7 h\u00f2a b\u00ecnh th\u1ebf gian, h\u1ecd \u0111\u01b0a ra nh\u1eefng l\u1ef1a ch\u1ecdn hy sinh \u0111\u1ea7y kh\u00f3 kh\u0103n, cu\u1ed1i c\u00f9ng th\u00e0nh c\u00f4ng ti\u00eau di\u1ec7t k\u1ebb \u0111\u1ee9ng \u0111\u1ea7u v\u1ea1n y\u00eau l\u00e0 C\u1eedu Anh, kh\u00e9p l\u1ea1i nh\u1eefng truy v\u1ea5n b\u1ea5t t\u1eadn v\u1ec1 t\u00ecnh y\u00eau ch\u00e2n th\u00e0nh v\u00e0 s\u1ef1 c\u1ee9u r\u1ed7i.","total_episodes":29,"current_episode":"T\u1eadp 14","time":"43 Ph\u00fat\/T\u1eadp","quality":"HD","language":"Vietsub + Thuy\u1ebft Minh","director":"Edward Guo","casts":"C\u00fac T\u1ecbnh Y, T\u0103ng Thu\u1ea5n Hy, Tr\u1ea7n \u0110\u00f4 Linh, \u0110i\u1ec1n Gia Th\u1ee5y"},{"name":"Durrani: Cu\u1ed9c \u0111\u1ea5u tranh c\u1ee7a S\u01b0 T\u1eed Me\u0323","slug":"durrani-cuoc-dau-tranh-cua-su-tu-me","original_name":"Durrani: Perjuangan Lion Mum","thumb_url":"https:\/\/phim.nguonc.com\/public\/images\/Post\/2\/durrani-cuoc-dau-tranh-cua-su-tu-me.jpg","poster_url":"https:\/\/phim.nguonc.com\/public\/images\/Post\/2\/durrani-cuoc-dau-tranh-cua-su-tu-me-1.jpg","created":"2026-03-30T04:14:19.000000Z","modified":"2026-04-06T03:57:19.000000Z","description":"Sau khi th\u1eafng m\u1ed9t v\u1ee5 ly h\u00f4n l\u1edbn, lu\u1eadt s\u01b0 tham v\u1ecdng Durrani \u2013 m\u1ed9t ng\u01b0\u1eddi m\u1eb9 \u2013 \u0111\u1ed1i m\u1eb7t v\u1edbi nh\u1eefng t\u00ecnh hu\u1ed1ng m\u1edbi trong l\u0129nh v\u1ef1c lu\u1eadt gia \u0111\u00ecnh, th\u1eed th\u00e1ch b\u1ea3n l\u0129nh, gi\u00e1 tr\u1ecb v\u00e0 tr\u00e1i tim.","total_episodes":15,"current_episode":"T\u1eadp 7","time":"45 Ph\u00fat\/T\u1eadp","quality":"HD","language":"Vietsub","director":null,"casts":"Nurul Aini, Fir Rahman, Suhaillah Salam"},{"name":"Linh V\u0169 \u0110\u1ea1i L\u1ee5c","slug":"linh-vu-dai-luc","original_name":"Ling Wu Dalu","thumb_url":"https:\/\/phim.nguonc.com\/public\/images\/Film\/6t45ty6476.jpg","poster_url":"https:\/\/phim.nguonc.com\/public\/images\/Film\/6t45ty6476.jpg","created":"2024-07-28T07:29:44.000000Z","modified":"2026-04-06T03:51:09.000000Z","description":"Linh V\u0169 \u0110\u1ea1i L\u1ee5c l\u00e0 th\u1ebf gi\u1edbi m\u00e0 s\u1ee9c m\u1ea1nh tinh th\u1ea7n v\u00e0 v\u00f5 h\u1ed3n c\u00f9ng t\u1ed3n t\u1ea1i. M\u1ed9t tu s\u0129 tinh th\u1ea7n c\u00f3 th\u1ec3 di chuy\u1ec3n n\u00fai s\u00f4ng b\u1eb1ng m\u1ed9t \u00fd ngh\u0129, v\u00e0 m\u1ed9t v\u00f5 s\u0129 c\u00f3 th\u1ec3 x\u00e9 n\u00e1t th\u1ebf gi\u1edbi b\u1eb1ng tay kh\u00f4ng. Chen Tian, \u200b\u200b\u200b\u200bm\u1ed9t thi\u00ean t\u00e0i tr\u01b0\u1edbc \u0111\u00e2y \u1edf th\u1ecb tr\u1ea5n Xingchen, \u0111\u00e3 m\u1ea5t \u0111i tinh th\u1ea7n v\u00f5 h\u1ed3n v\u00e0 c\u1ea1n ki\u1ec7t bi\u1ec3n tinh th\u1ea7n c\u1ee7a m\u00ecnh sau khi anh tr\u00f2n m\u01b0\u1eddi tu\u1ed5i.","total_episodes":200,"current_episode":"T\u1eadp 167","time":null,"quality":"HD","language":"Vietsub","director":null,"casts":null},{"name":"V\u00f4 Th\u01b0\u1ee3ng Th\u1ea7n \u0110\u1ebf","slug":"vo-thuong-than-de","original_name":"Wu Shang Shen Di, Supreme God Emperor","thumb_url":"https:\/\/phim.nguonc.com\/public\/images\/Film\/3051.jpg","poster_url":"https:\/\/phim.nguonc.com\/public\/images\/Film\/3051.jpg","created":"2023-07-18T14:42:18.000000Z","modified":"2026-04-06T03:51:04.000000Z","description":"M\u01b0\u1eddi ng\u00e0n n\u0103m tr\u01b0\u1edbc, v\u1ecb vua b\u1ea5t t\u1eed Muyun b\u1ecb ng\u01b0\u1eddi kh\u00e1c \u00e2m m\u01b0u chi\u1ebfm gi\u1eef Zhu Xiantu. Sau 10.000 n\u0103m ng\u1ee7 y\u00ean, linh h\u1ed3n c\u00f2n s\u00f3t l\u1ea1i c\u1ee7a anh \u0111\u00e3 th\u1ee9c t\u1ec9nh tr\u00ean \"Trash Muyun\" n\u1ed5i ti\u1ebfng c\u1ee7a Nam V\u00e2n \u0110\u1ebf Qu\u1ed1c tr\u00ean l\u1ee5c \u0111\u1ecba Thi\u00ean M\u1ec7nh.","total_episodes":632,"current_episode":"T\u1eadp 594","time":null,"quality":"HD","language":"Vietsub","director":null,"casts":null},{"name":"L\u00e3o T\u1ed5 Luy\u1ec7n Th\u1ec3 M\u1ea1nh Nh\u1ea5t L\u1ecbch S\u1eed 3D","slug":"lao-to-luyen-the-manh-nhat-lich-su-3d","original_name":"The Supreme Body Refining Master","thumb_url":"https:\/\/phim.nguonc.com\/public\/images\/Post\/9\/lao-to-luyen-the-manh-nhat-lich-su-3d.jpg","poster_url":"https:\/\/phim.nguonc.com\/public\/images\/Post\/9\/lao-to-luyen-the-manh-nhat-lich-su-3d-1.jpg","created":"2026-01-26T07:39:38.000000Z","modified":"2026-04-06T03:50:48.000000Z","description":"T\u1eebng l\u00e0 m\u1ed9t v\u1ecb l\u00e3o t\u1ed5 t\u00f4ng kh\u00e9t ti\u1ebfng trong thi\u00ean h\u1ea1 nh\u1edd v\u00e0o nh\u1eefng thi\u00ean ph\u00fa v\u01b0\u1ee3t b\u1eadc, v\u01b0\u1ee3t l\u00ean tr\u00ean c\u1ea3 thi\u00ean ki\u1ebfp kh\u1eafc nghi\u1ec7t \u0111\u1ec3 ti\u1ebfn l\u00ean Th\u1ea7n Gi\u1edbi, nh\u01b0ng l\u00f2ng tr\u1eafc \u1ea9n s\u00e2u s\u1eafc c\u1ee7a Di\u1ec7p Th\u01b0\u01a1ng Huy\u1ec1n \u0111\u00e3 khi\u1ebfn anh quy\u1ebft \u0111\u1ecbnh quay l\u1ea1i nh\u00e2n gian \u0111\u1ec3 m\u1ed9t l\u1ea7n n\u1eefa c\u1ee9u r\u1ed7i ch\u00fang sinh, \u0111\u01b0a nh\u00e2n gian kh\u1ed5 c\u1ef1c v\u01b0\u1ee3t qua c\u01a1n ki\u1ebfp n\u1ea1n. C\u1eedu Huy\u1ec1n \u0110\u1ea1i L\u1ee5c, n\u01a1i m\u00e0 \u0111ang \u0111\u1ee9ng b\u00ean b\u1edd v\u1ef1c tan v\u1ee1 b\u1edfi t\u00e0 ma ngo\u1ea1i \u0111\u1ea1o, quy\u1ec1n l\u1ef1c chia r\u1ebd, c\u00e1c t\u00f4ng ph\u00e1i l\u1edbn c\u0169ng ch\u1eb3ng c\u00f2n ti\u1ebfng n\u00f3i, m\u1ecdi th\u1ee9 tr\u1edf n\u00ean v\u00f4 c\u00f9ng b\u1ea5t \u0111\u1ecbnh, Di\u1ec7p Th\u01b0\u01a1ng Huy\u1ec1n \u0111\u00e3 tr\u00f9ng sinh \u0111\u1ec3 l\u00e0m l\u1ea1i t\u1eeb \u0111\u1ea7u, tu luy\u1ec7n, v\u01b0\u1ee3t qua gian kh\u1ed5 \u0111\u1ec3 c\u00f3 th\u1ec3 th\u1ed1ng nh\u1ea5t l\u1ea1i 6 m\u00f4n ph\u00e1i l\u1edbn tr\u00ean \u0111\u1ea1i l\u1ee5c, \u0111\u1ed3ng th\u1eddi \u0111\u00e1nh \u0111u\u1ed5i y\u00eau ma, ch\u1ed1ng l\u1ea1i thi\u00ean \u0111\u1ea1o v\u00e0 th\u1ea7n gi\u1edbi.","total_episodes":40,"current_episode":"T\u1eadp 28","time":"10 ph\u00fat\/t\u1eadp","quality":"HD","language":"Vietsub","director":null,"casts":null},{"name":"Kamen Rider Zeztz","slug":"kamen-rider-zeztz","original_name":"Kamen Rider Zeztz","thumb_url":"https:\/\/phim.nguonc.com\/public\/images\/Post\/5\/kamen-rider-zeztz.jpg","poster_url":"https:\/\/phim.nguonc.com\/public\/images\/Post\/5\/kamen-rider-zeztz-1.jpg","created":"2025-09-08T06:37:32.000000Z","modified":"2026-04-06T03:50:41.000000Z","description":"Kamen Rider Zeztz xoay quanh m\u1ed9t ng\u01b0\u1eddi h\u00f9ng c\u00f3 n\u0103ng l\u1ef1c \u0111i\u1ec1u khi\u1ec3n gi\u1ea5c m\u01a1. Ban ng\u00e0y, Yorozu Baku l\u00e0 m\u1ed9t anh ch\u00e0ng th\u1ea5t nghi\u1ec7p s\u1ed1ng c\u00f9ng em g\u00e1i, nh\u01b0ng \u0111\u1ebfn \u0111\u00eam, anh l\u1ea1i tr\u1edf th\u00e0nh m\u1ed9t Kamen Rider b\u1ea5t kh\u1ea3 chi\u1ebfn b\u1ea1i c\u00f3 kh\u1ea3 n\u0103ng x\u00e2m nh\u1eadp v\u00e0o gi\u1ea5c m\u01a1 c\u1ee7a ng\u01b0\u1eddi kh\u00e1c. Khi m\u1ed9t th\u1ebf l\u1ef1c \u0111en t\u1ed1i b\u1eaft \u0111\u1ea7u l\u00e0m t\u1ed5 trong gi\u1ea5c m\u01a1 c\u1ee7a con ng\u01b0\u1eddi \u0111\u1ec3 r\u1ed3i t\u1eeb \u0111\u00f3 d\u1ea7n d\u1ea7n x\u00e2m l\u1ea5n th\u1ebf gi\u1edbi th\u1ef1c, Baku ch\u00ednh l\u00e0 ng\u01b0\u1eddi duy nh\u1ea5t c\u00f3 th\u1ec3 chi\u1ebfn \u0111\u1ea5u trong m\u01a1 \u0111\u1ec3 b\u1ea3o v\u1ec7 nh\u00e2n lo\u1ea1i v\u00e0 gi\u1ea5c ng\u1ee7 c\u1ee7a h\u1ecd.","total_episodes":50,"current_episode":"T\u1eadp 29","time":"25 ph\u00fat\/t\u1eadp","quality":"HD","language":"L\u1ed3ng Ti\u1ebfng","director":"Kazuya Kamihoriuchi","casts":"Imai Ryutaro, Horiguchi Maho, Furukawa Yuki"},{"name":"Ngh\u1ecbch Thi\u00ean Ch\u00ed T\u00f4n","slug":"nghich-thien-chi-ton","original_name":"Ni Tian Zhi Zun","thumb_url":"https:\/\/phim.nguonc.com\/public\/images\/Film\/3300.jpg","poster_url":"https:\/\/phim.nguonc.com\/public\/images\/Film\/3300.jpg","created":"2023-07-18T14:43:08.000000Z","modified":"2026-04-06T03:50:38.000000Z","description":"H\u1ea1i ng\u01b0\u1eddi th\u00e2n c\u1ee7a ta, gi\u1ebft! C\u01b0\u1edbp ng\u01b0\u1eddi ph\u1ee5 n\u1eef c\u1ee7a ta, gi\u1ebft! D\u00e1m \u0111\u1ed9ng th\u1ee7 tr\u01b0\u1edbc m\u1eb7t ta? C\u00e0ng ph\u1ea3i gi\u1ebft! Sau khi r\u01a1i xu\u1ed1ng v\u1ea1n th\u1ebf lu\u00e2n h\u1ed3i, \u0110\u00e0m V\u00e2n cu\u1ed1i c\u00f9ng c\u0169ng nh\u1edb ra th\u00e2n ph\u1eadn c\u1ee7a m\u00ecnh - khi ta t\u1ec9nh d\u1eady, c\u1ea3 th\u1ebf gi\u1edbi s\u1ebd run r\u1ea9y d\u01b0\u1edbi ch\u00e2n t\u00f4i!","total_episodes":580,"current_episode":"T\u1eadp 503","time":null,"quality":"HD","language":"Vietsub","director":null,"casts":null},{"name":"Mao","slug":"mao","original_name":"Mao","thumb_url":"https:\/\/phim.nguonc.com\/public\/images\/Post\/2\/mao.jpg","poster_url":"https:\/\/phim.nguonc.com\/public\/images\/Post\/2\/mao1.jpg","created":"2026-04-06T03:39:38.000000Z","modified":"2026-04-06T03:50:37.000000Z","description":"Nanoka v\u00f4 t\u00ecnh xuy\u00ean qua m\u1ed9t c\u00e1nh c\u1ed5ng d\u1eabn \u0111\u1ebfn th\u1eddi \u0110\u1ea1i Ch\u00ednh, n\u01a1i c\u00f4 \u0111\u01b0\u1ee3c m\u1ed9t \u00e2m d\u01b0\u01a1ng s\u01b0 Mao mi\u1ec5n c\u01b0\u1ee1ng c\u1ee9u tho\u00e1t kh\u1ecfi nanh vu\u1ed1t c\u1ee7a y\u00eau qu\u00e1i g\u1edbm ghi\u1ebfc. Tr\u1edf v\u1ec1 hi\u1ec7n t\u1ea1i, Nanoka ph\u00e1t hi\u1ec7n b\u1ea3n th\u00e2n \u0111\u00e3 s\u1edf h\u1eefu nh\u1eefng n\u0103ng l\u1ef1c m\u1edbi phi th\u01b0\u1eddng. Quy\u1ebft t\u00e2m t\u00ecm l\u1eddi gi\u1ea3i \u0111\u00e1p, c\u00f4 quay l\u1ea1i qu\u00e1 kh\u1ee9 nh\u01b0ng l\u1ea1i b\u1ecb cu\u1ed1n v\u00e0o cu\u1ed9c \u0111i\u1ec1u tra c\u1ee7a Mao v\u1ec1 h\u00e0ng lo\u1ea1t v\u1ee5 \u00e1n gi\u1ebft ng\u01b0\u1eddi r\u00f9ng r\u1ee3n. Khi nh\u1eefng nghi v\u1ea5n v\u1ec1 ch\u00ednh m\u00ecnh ng\u00e0y c\u00e0ng ch\u1ed3ng ch\u1ea5t, Nanoka bi\u1ebft \u0111\u01b0\u1ee3c r\u1eb1ng Mao b\u1ecb nguy\u1ec1n r\u1ee7a b\u1edfi Mi\u00eau Qu\u1ef7 v\u00e0 c\u1ea3 thanh ki\u1ebfm c\u1ee7a c\u1eadu c\u0169ng mang l\u1eddi nguy\u1ec1n \u1ea5y. B\u1ea5t k\u1ef3 ai ngo\u00e0i Mao ch\u1ea1m v\u00e0o \u0111\u1ec1u s\u1ebd g\u1eb7p tai h\u1ecda. Tuy nhi\u00ean, khi t\u00ednh m\u1ea1ng Mao b\u1ecb \u0111e d\u1ecda, Nanoka \u0111\u00e3 c\u1ea7m l\u1ea5y thanh ki\u1ebfm v\u00e0 vung l\u00ean!","total_episodes":12,"current_episode":"T\u1eadp 1","time":"23 ph\u00fat\/t\u1eadp","quality":"HD","language":"Vietsub","director":"Satou Teruo","casts":null},{"name":"Diamond no Ace: Act II Second Season","slug":"diamond-no-ace-act-ii-second-season","original_name":"Ace of Diamond Act II Season 2","thumb_url":"https:\/\/phim.nguonc.com\/public\/images\/Post\/2\/diamond-no-ace-act-ii-second-season.jpg","poster_url":"https:\/\/phim.nguonc.com\/public\/images\/Post\/2\/diamond-no-ace-act-ii-second-season-1.jpg","created":"2026-04-06T03:42:49.000000Z","modified":"2026-04-06T03:50:35.000000Z","description":"Ti\u1ebfp t\u1ee5c v\u00f2ng lo\u1ea1i m\u00f9a h\u00e8 tr\u00ean con \u0111\u01b0\u1eddng tr\u01b0\u1edfng th\u00e0nh c\u1ee7a Ace Sawamura.","total_episodes":24,"current_episode":"T\u1eadp 1","time":"23 ph\u00fat\/t\u1eadp","quality":"HD","language":"Vietsub","director":"Ooba Hideaki","casts":null},{"name":"One Piece","slug":"one-piece","original_name":"\u0110\u1ea3o H\u1ea3i T\u1eb7c, Vua H\u1ea3i T\u1eb7c, OP","thumb_url":"https:\/\/phim.nguonc.com\/public\/images\/Post\/5\/one-piece.jpg","poster_url":"https:\/\/phim.nguonc.com\/public\/images\/Post\/4\/one-piece.jpg","created":"2023-07-18T14:39:52.000000Z","modified":"2026-04-05T16:23:26.000000Z","description":"Gol D. Roger \u0111\u01b0\u1ee3c bi\u1ebft \u0111\u1ebfn v\u1edbi bi\u1ec7t danh \"Vua h\u1ea3i t\u1eb7c\", ng\u01b0\u1eddi m\u1ea1nh nh\u1ea5t v\u00e0 kh\u00e9t ti\u1ebfng nh\u1ea5t \u0111\u00e3 \u0111i thuy\u1ec1n tr\u00ean Grand Line.\u00a0Vi\u1ec7c Ch\u00ednh ph\u1ee7 Th\u1ebf gi\u1edbi b\u1eaft gi\u1eef v\u00e0 h\u00e0nh quy\u1ebft Roger \u0111\u00e3 mang \u0111\u1ebfn m\u1ed9t s\u1ef1 thay \u0111\u1ed5i tr\u00ean to\u00e0n th\u1ebf gi\u1edbi.\u00a0Nh\u1eefng l\u1eddi cu\u1ed1i c\u00f9ng c\u1ee7a anh \u1ea5y tr\u01b0\u1edbc khi ch\u1ebft \u0111\u00e3 ti\u1ebft l\u1ed9 s\u1ef1 t\u1ed3n t\u1ea1i c\u1ee7a kho b\u00e1u v\u0129 \u0111\u1ea1i nh\u1ea5t th\u1ebf gi\u1edbi, One Piece.","total_episodes":2000,"current_episode":"T\u1eadp 1156","time":"24 ph\u00fat\/t\u1eadp","quality":"HD","language":"Vietsub + L\u1ed3ng Ti\u1ebfng","director":"Eiichiro Oda","casts":"Mayumi Tanaka, Kazuya Nakai, Hiroaki Hirata"}]}