{"status":true,"items":[{"tmdb":{"type":"tv","id":"37854","season":1,"vote_average":8.7,"vote_count":5118},"imdb":{"id":"tt0388629","vote_average":9,"vote_count":341535},"modified":{"time":"2026-04-06T12:12:13.000Z"},"_id":"6220e66e8481266c5b7f154f","name":"Đảo Hải Tặc","origin_name":"One Piece (Luffy)","thumb_url":"one-piece-thumb.jpg","slug":"one-piece","year":1999,"poster_url":"one-piece-poster.jpg"},{"tmdb":{"type":"movie","id":"14247","season":null,"vote_average":5.4,"vote_count":121},"imdb":{"id":"tt0408196","vote_average":5.3,"vote_count":3903},"modified":{"time":"2026-04-06T12:08:33.000Z"},"_id":"69d32fb71d0b515454bad6ec","name":"Lính Bắn Tỉa 3","slug":"linh-ban-tia-3","origin_name":"Sniper 3","thumb_url":"linh-ban-tia-3-thumb.jpg","poster_url":"linh-ban-tia-3-poster.jpg","year":2004},{"tmdb":{"type":"tv","id":"258124","season":2,"vote_average":0,"vote_count":0},"imdb":{"id":"tt13158394","vote_average":0,"vote_count":68},"modified":{"time":"2026-04-06T12:08:05.000Z"},"_id":"69d32e9fd88856be7727f9d3","name":"Danny Go! (Phần 2)","slug":"danny-go-phan-2","origin_name":"Danny Go! (Season 2)","thumb_url":"danny-go-phan-2-thumb-1775447752804.jpg","poster_url":"danny-go-phan-2-poster-1775447754168.jpg","year":2019},{"tmdb":{"type":"tv","id":"313718","season":1,"vote_average":0,"vote_count":0},"imdb":{"id":"tt41382074","vote_average":0,"vote_count":0},"modified":{"time":"2026-04-06T12:04:09.000Z"},"_id":"69d33ec932adc86a1e8728b0","name":"Thất Cốt","slug":"that-cot","origin_name":"Bone Ritual","thumb_url":"that-cot-thumb.jpg","poster_url":"that-cot-poster.jpg","year":2026},{"tmdb":{"type":"tv","id":"283961","season":1,"vote_average":0,"vote_count":0},"imdb":{"id":"tt36982546","vote_average":0,"vote_count":0},"modified":{"time":"2026-04-06T11:58:36.000Z"},"_id":"69c4bee8f65d22d617b880f2","name":"Em là niềm vui đến muộn","slug":"em-la-niem-vui-den-muon","origin_name":"You Are My Fateful Love","thumb_url":"em-la-niem-vui-den-muon-thumb.jpg","poster_url":"em-la-niem-vui-den-muon-poster.jpg","year":2026},{"tmdb":{"type":"tv","id":"278275","season":1,"vote_average":0,"vote_count":0},"imdb":{"id":"tt35046984","vote_average":0,"vote_count":0},"modified":{"time":"2026-04-06T11:57:51.000Z"},"_id":"69cbbf964da3bf6eb346f5e5","name":"Nguyệt Lân Ỷ Kỷ","slug":"nguyet-lan-y-ky","origin_name":"Veil of Shadows","thumb_url":"nguyet-lan-y-ky-thumb.jpg","poster_url":"nguyet-lan-y-ky-poster.jpg","year":2026},{"tmdb":{"type":"tv","id":"270857","season":1,"vote_average":0,"vote_count":0},"imdb":{"id":"tt31540954","vote_average":0,"vote_count":0},"modified":{"time":"2026-04-06T11:40:17.000Z"},"_id":"69bb84f40a0114095c82b197","name":"Cái Tên Ẩn Danh","slug":"cai-ten-an-danh","origin_name":"Vanished Name","thumb_url":"cai-ten-an-danh-thumb.jpg","poster_url":"cai-ten-an-danh-poster.jpg","year":2026},{"tmdb":{"type":"tv","id":"317216","season":1,"vote_average":0,"vote_count":0},"imdb":{"id":"tt40961512","vote_average":0,"vote_count":0},"modified":{"time":"2026-04-06T11:40:00.000Z"},"_id":"69c4b708988d934ea9f78f06","name":"Sa Đoạ","slug":"sa-doa","origin_name":"In Love with Loving You","thumb_url":"sa-doa-thumb.jpg","poster_url":"sa-doa-poster.jpg","year":2026},{"tmdb":{"type":"tv","id":"295434","season":1,"vote_average":9.3,"vote_count":7},"imdb":{"id":"tt37532884","vote_average":8.2,"vote_count":104},"modified":{"time":"2026-04-06T11:08:03.000Z"},"_id":"68d273e85c81ed0050c53bce","name":"Hiệp Sĩ Mặt Nạ ZEZTZ","slug":"hiep-si-mat-na-zeztz","origin_name":"Kamen Rider ZEZTZ","thumb_url":"hiep-si-mat-na-zeztz-thumb.jpg","poster_url":"hiep-si-mat-na-zeztz-poster.jpg","year":2025},{"tmdb":{"type":"tv","id":"129272","season":1,"vote_average":9,"vote_count":6},"imdb":{"id":"tt15816496","vote_average":0,"vote_count":122},"modified":{"time":"2026-04-06T11:07:49.000Z"},"_id":"62d1e31f0376e41264a0aad7","name":"Nghịch Thiên Chí Tôn","origin_name":"Against The Sky Supreme","thumb_url":"nghich-thien-chi-ton-thumb.jpg","poster_url":"nghich-thien-chi-ton-poster.jpg","slug":"nghich-thien-chi-ton","year":2021},{"tmdb":{"type":"tv","id":"303076","season":1,"vote_average":0,"vote_count":0},"imdb":{"id":"","vote_average":0,"vote_count":0},"modified":{"time":"2026-04-06T00:40:15.000Z"},"_id":"6947a82897c71dcd0d63982e","name":"Người Đàn Ông Đầu Tiên","slug":"nguoi-dan-ong-dau-tien","origin_name":"First Man","thumb_url":"nguoi-dan-ong-dau-tien-thumb.jpg","poster_url":"nguoi-dan-ong-dau-tien-poster.jpg","year":2025},{"tmdb":{"type":"tv","id":"307602","season":1,"vote_average":10,"vote_count":2},"imdb":{"id":"tt39375564","vote_average":4.5,"vote_count":19},"modified":{"time":"2026-04-06T00:05:39.000Z"},"_id":"69bc1529ccc6cea268841d51","name":"Công Thức Tình Yêu","slug":"cong-thuc-tinh-yeu","origin_name":"Recipe For Love","thumb_url":"cong-thuc-tinh-yeu-thumb.jpg","poster_url":"cong-thuc-tinh-yeu-poster.jpg","year":2026},{"tmdb":{"type":"tv","id":"211358","season":1,"vote_average":7.8,"vote_count":212},"imdb":{"id":"tt1640719","vote_average":7.2,"vote_count":20870},"modified":{"time":"2026-04-05T23:43:41.000Z"},"_id":"69cb7a5e458948c679afe323","name":"Bi Kịch Dưới Chân Cầu","slug":"bi-kich-duoi-chan-cau","origin_name":"Under the Bridge","thumb_url":"bi-kich-duoi-chan-cau-thumb.jpg","poster_url":"bi-kich-duoi-chan-cau-poster.jpg","year":2024},{"tmdb":{"type":"tv","id":"281392","season":1,"vote_average":0,"vote_count":0},"imdb":{"id":"tt32465914","vote_average":0,"vote_count":0},"modified":{"time":"2026-04-05T19:18:08.000Z"},"_id":"69cfb9e5f07c400a86d7f054","name":"Rừng Thép","slug":"rung-thep","origin_name":"Sunsets Secrets Regrets","thumb_url":"rung-thep-thumb.jpg","poster_url":"rung-thep-poster.jpg","year":2026},{"tmdb":{"type":"tv","id":"273151","season":1,"vote_average":0,"vote_count":0},"imdb":{"id":"tt41150762","vote_average":0,"vote_count":0},"modified":{"time":"2026-04-05T19:16:56.000Z"},"_id":"69cbba5eeea244e3e8ba4862","name":"Mối Quan Hệ Nguy Hiểm","slug":"moi-quan-he-nguy-hiem-2026","origin_name":"The Dark Romance","thumb_url":"moi-quan-he-nguy-hiem-2026-thumb.jpg","poster_url":"moi-quan-he-nguy-hiem-2026-poster.jpg","year":2026},{"tmdb":{"type":"tv","id":"258865","season":1,"vote_average":0,"vote_count":0},"imdb":{"id":"tt32330809","vote_average":0,"vote_count":0},"modified":{"time":"2026-04-05T19:15:31.000Z"},"_id":"692ead4fca27378366af81b0","name":"Mộ Tư Từ","slug":"mo-tu-tu","origin_name":"Love Beyond the Grave","thumb_url":"mo-tu-tu-thumb.jpg","poster_url":"mo-tu-tu-poster.jpg","year":2025},{"tmdb":{"type":"tv","id":"282902","season":1,"vote_average":0,"vote_count":0},"imdb":{"id":"","vote_average":0,"vote_count":0},"modified":{"time":"2026-04-05T19:15:17.000Z"},"_id":"69cd0970eea244e3e8ba91fc","name":"Anh Vũ","slug":"anh-vu-2026","origin_name":"Unpredictable","thumb_url":"anh-vu-2026-thumb.jpg","poster_url":"anh-vu-2026-poster.jpg","year":2026},{"tmdb":{"type":"tv","id":"307624","season":1,"vote_average":8.5,"vote_count":2},"imdb":{"id":"tt40586090","vote_average":0,"vote_count":0},"modified":{"time":"2026-04-05T16:31:15.000Z"},"_id":"69be8cc5b06c99c722ff4329","name":"Tết Thiếu Nhi của Sơ Tam","slug":"tet-thieu-nhi-cua-so-tam","origin_name":"Sammy's Children's Day","thumb_url":"tet-thieu-nhi-cua-so-tam-thumb.jpg","poster_url":"tet-thieu-nhi-cua-so-tam-poster.jpg","year":2026},{"tmdb":{"type":"movie","id":"1629369","season":null,"vote_average":7,"vote_count":4},"imdb":{"id":"tt32572716","vote_average":0,"vote_count":0},"modified":{"time":"2026-04-05T16:00:33.000Z"},"_id":"69d21ffbb06c99c72203787b","name":"Sự thật và bi kịch của Moriah Wilson","slug":"su-that-va-bi-kich-cua-moriah-wilson","origin_name":"The Truth and Tragedy of Moriah Wilson","thumb_url":"su-that-va-bi-kich-cua-moriah-wilson-thumb.jpg","poster_url":"su-that-va-bi-kich-cua-moriah-wilson-poster.jpg","year":2026},{"tmdb":{"type":"tv","id":"306129","season":1,"vote_average":0,"vote_count":0},"imdb":{"id":"","vote_average":0,"vote_count":0},"modified":{"time":"2026-04-05T15:17:05.000Z"},"_id":"697f03db124287e08252ff23","name":"Soda Master","slug":"soda-master","origin_name":"Soda Master","thumb_url":"soda-master-thumb.jpg","poster_url":"soda-master-poster.jpg","year":2026},{"tmdb":{"type":"tv","id":"316374","season":2,"vote_average":0,"vote_count":0},"imdb":{"id":"tt40606760","vote_average":0,"vote_count":0},"modified":{"time":"2026-04-05T15:02:02.000Z"},"_id":"69c7aab9e263b2a946273f02","name":"Minh Châu Kỳ Đàm (Phần 2)","slug":"minh-chau-ky-dam-phan-2","origin_name":"The Secret of the Lost Pearl (Season 2)","thumb_url":"minh-chau-ky-dam-phan-2-thumb.jpg","poster_url":"minh-chau-ky-dam-phan-2-poster.jpg","year":2026},{"tmdb":{"type":"tv","id":"318169","season":1,"vote_average":0,"vote_count":0},"imdb":{"id":"","vote_average":0,"vote_count":0},"modified":{"time":"2026-04-05T15:01:40.000Z"},"_id":"69cfc1840a0114095c87307b","name":"Bão Tố Dữ Dội","slug":"bao-to-du-doi","origin_name":"The Storm","thumb_url":"bao-to-du-doi-thumb.jpg","poster_url":"bao-to-du-doi-poster.jpg","year":2026},{"tmdb":{"type":"tv","id":"282904","season":1,"vote_average":0,"vote_count":0},"imdb":{"id":"tt32563322","vote_average":0,"vote_count":0},"modified":{"time":"2026-04-05T15:01:09.000Z"},"_id":"69b4de70458948c679aa8d38","name":"Ngọn Lửa Rực Rỡ Của Cô Ấy","slug":"ngon-lua-ruc-ro-cua-co-ay","origin_name":"Her Blaze","thumb_url":"ngon-lua-ruc-ro-cua-co-ay-thumb.jpg","poster_url":"ngon-lua-ruc-ro-cua-co-ay-poster.jpg","year":2026},{"tmdb":{"type":"tv","id":"317762","season":1,"vote_average":0,"vote_count":0},"imdb":{"id":"tt41164579","vote_average":0,"vote_count":0},"modified":{"time":"2026-04-05T15:00:53.000Z"},"_id":"69ca1f9ed88856be7725eca5","name":"Lòng Anh Không Khó Đoán","slug":"long-anh-khong-kho-doan","origin_name":"Born To Be The Villain","thumb_url":"long-anh-khong-kho-doan-thumb.jpg","poster_url":"long-anh-khong-kho-doan-poster.jpg","year":2026}],"pathImage":"https://img.ophim.live/uploads/movies/","pagination":{"totalItems":35141,"totalItemsPerPage":24,"currentPage":1,"totalPages":1465}}